\relax 
\@writefile{toc}{\contentsline {section}{\numberline {1}Introduction}{1}}
\@writefile{toc}{\contentsline {subsection}{\numberline {1.1}How Newton's method works}{1}}
\@writefile{toc}{\contentsline {subsection}{\numberline {1.2}General Effectiveness}{2}}
\@writefile{toc}{\contentsline {section}{\numberline {2}Testing Different Functions}{2}}
\@writefile{toc}{\contentsline {section}{\numberline {3}Analysis}{2}}
\@writefile{toc}{\contentsline {section}{\numberline {4}Conclusion: Avoiding Linear Convergance}{2}}
\@writefile{toc}{\contentsline {section}{\numberline {5}Appendix}{3}}
\@writefile{toc}{\contentsline {subsection}{\numberline {5.1}Code}{3}}
\@writefile{toc}{\contentsline {subsubsection}{\numberline {5.1.1}newtonS.pl}{3}}
\@writefile{toc}{\contentsline {subsubsection}{\numberline {5.1.2}newtonS.f90.Template}{5}}
\@writefile{toc}{\contentsline {subsection}{\numberline {5.2}Tables/Data}{7}}
\@writefile{lot}{\contentsline {table}{\numberline {1}{\ignorespaces \(f(x) = x\) }}{7}}
\newlabel{tab:1}{{1}{7}}
\@writefile{lot}{\contentsline {table}{\numberline {2}{\ignorespaces \(f(x) = x^2\) }}{7}}
\newlabel{tab:2}{{2}{7}}
\@writefile{lot}{\contentsline {table}{\numberline {3}{\ignorespaces \(f(x) = \qopname  \relax o{sin}x + \qopname  \relax o{cos}x^2\) }}{8}}
\newlabel{tab:3}{{3}{8}}
